<svg xmlns="http://www.w3.org/2000/svg" width="50" height="58.161" viewBox="0 0 50 58.161">
  <g id="Group_11342" data-name="Group 11342" transform="translate(-1185 -44.485)">
    <text id="Tin_tức" data-name="Tin tức" transform="translate(1185 96.646)" fill="#001589" font-size="16" font-family="AvenirNext-Medium, Avenir Next" font-weight="500"><tspan x="0" y="0">Tin tức</tspan></text>
    <rect id="Rectangle_1871" data-name="Rectangle 1871" width="28.446" height="31.389" transform="translate(1222.931 44.865) rotate(90)" fill="#a7dcf8"/>
    <path id="Path_11645" data-name="Path 11645" d="M318.778,20.323H285.554a.554.554,0,0,0-.554.554V51.886a.554.554,0,0,0,.554.554h33.224a.554.554,0,0,0,.554-.554V20.877A.554.554,0,0,0,318.778,20.323Zm-.554,3.692H315.64V21.43h2.584Zm-3.692-2.584v2.584H286.107V21.43Zm-28.425,29.9V25.122h32.116v26.21Z" transform="translate(906.542 24.162)" fill="#001589"/>
    <path id="Path_11646" data-name="Path 11646" d="M391.208,298.065H366.844a.554.554,0,1,0,0,1.107h24.364a.554.554,0,1,0,0-1.107Z" transform="translate(829.683 -238.445)" fill="#001589"/>
    <path id="Path_11647" data-name="Path 11647" d="M377.549,352.258H366.844a.554.554,0,1,0,0,1.107h10.705a.554.554,0,1,0,0-1.107Z" transform="translate(829.683 -289.685)" fill="#001589"/>
    <path id="Path_11648" data-name="Path 11648" d="M377.549,406.452H366.844a.554.554,0,1,0,0,1.107h10.705a.554.554,0,1,0,0-1.107Z" transform="translate(829.683 -340.925)" fill="#001589"/>
    <path id="Path_11649" data-name="Path 11649" d="M377.549,460.645H366.844a.554.554,0,1,0,0,1.107h10.705a.554.554,0,1,0,0-1.107Z" transform="translate(829.683 -392.165)" fill="#001589"/>
    <path id="Path_11650" data-name="Path 11650" d="M628.194,352.258H617.489a.554.554,0,0,0-.554.554v2.215a.554.554,0,0,0,1.108,0v-1.661h9.6v7.752h-9.6v-3.876a.554.554,0,1,0-1.108,0v4.43a.554.554,0,0,0,.554.554h10.705a.554.554,0,0,0,.554-.554v-8.86A.554.554,0,0,0,628.194,352.258Z" transform="translate(592.696 -289.685)" fill="#001589"/>
    <path id="Path_11651" data-name="Path 11651" d="M377.549,514.839H366.844a.554.554,0,1,0,0,1.107h10.705a.554.554,0,1,0,0-1.107Z" transform="translate(829.683 -443.406)" fill="#001589"/>
    <path id="Path_11652" data-name="Path 11652" d="M727.48,165.557a4.09,4.09,0,0,0,1.244.339c.963.158,1.1.261,1.1.561,0,.437-.635.554-1.011.554-.5,0-.9-.164-.987-.408a.554.554,0,0,0-1.041.377,2.016,2.016,0,0,0,2.028,1.139c1.247,0,2.118-.683,2.118-1.662a1.406,1.406,0,0,0-.785-1.315,4.09,4.09,0,0,0-1.244-.339c-.963-.158-1.1-.261-1.1-.56,0-.437.635-.554,1.011-.554.5,0,.9.164.987.408a.554.554,0,1,0,1.041-.377,2.017,2.017,0,0,0-2.028-1.138c-1.247,0-2.118.683-2.118,1.662A1.405,1.405,0,0,0,727.48,165.557Z" transform="translate(488.917 -110.344)" fill="#001589"/>
    <path id="Path_11653" data-name="Path 11653" d="M604.8,167.7a.554.554,0,0,0,1.031.114l.629-1.24.629,1.24a.554.554,0,0,0,.494.3.541.541,0,0,0,.061,0,.554.554,0,0,0,.476-.414l1.122-4.43a.554.554,0,1,0-1.074-.272l-.76,3-.455-.9a.554.554,0,0,0-.988,0l-.454.9-.76-3a.554.554,0,0,0-1.074.272Z" transform="translate(605.249 -110.341)" fill="#001589"/>
    <path id="Path_11654" data-name="Path 11654" d="M506.147,168.118h3.129a.554.554,0,1,0,0-1.107H506.7V165.9h1.532a.554.554,0,1,0,0-1.107H506.7v-1.108h2.575a.554.554,0,1,0,0-1.107h-3.129a.554.554,0,0,0-.554.554v4.43A.554.554,0,0,0,506.147,168.118Z" transform="translate(697.971 -110.344)" fill="#001589"/>
    <path id="Path_11655" data-name="Path 11655" d="M396.117,168.116a.554.554,0,0,0,.554-.554v-2.928l2.806,3.288a.554.554,0,0,0,.975-.36v-4.43a.554.554,0,1,0-1.107,0v2.928l-2.806-3.288a.554.554,0,0,0-.975.36v4.43A.554.554,0,0,0,396.117,168.116Z" transform="translate(802.004 -110.342)" fill="#001589"/>
  </g>
</svg>
